%YAML 1.1
%TAG !u! tag:unity3d.com,2011:
--- !u!1001 &100100000
Prefab:
  m_ObjectHideFlags: 1
  serializedVersion: 2
  m_Modification:
    m_TransformParent: {fileID: 0}
    m_Modifications: []
    m_RemovedComponents: []
  m_ParentPrefab: {fileID: 0}
  m_RootGameObject: {fileID: 1945348941788760}
  m_IsPrefabParent: 1
--- !u!1 &1945348941788760
GameObject:
  m_ObjectHideFlags: 0
  m_PrefabParentObject: {fileID: 0}
  m_PrefabInternal: {fileID: 100100000}
  serializedVersion: 5
  m_Component:
  - component: {fileID: 4972175253582340}
  - component: {fileID: 114399327823113674}
  m_Layer: 0
  m_Name: LineManager
  m_TagString: Untagged
  m_Icon: {fileID: 0}
  m_NavMeshLayer: 0
  m_StaticEditorFlags: 0
  m_IsActive: 1
--- !u!4 &4972175253582340
Transform:
  m_ObjectHideFlags: 1
  m_PrefabParentObject: {fileID: 0}
  m_PrefabInternal: {fileID: 100100000}
  m_GameObject: {fileID: 1945348941788760}
  m_LocalRotation: {x: -0, y: -0, z: -0, w: 1}
  m_LocalPosition: {x: -1427.1603, y: -848.86536, z: 0}
  m_LocalScale: {x: 1, y: 1, z: 1}
  m_Children: []
  m_Father: {fileID: 0}
  m_RootOrder: 0
  m_LocalEulerAnglesHint: {x: 0, y: 0, z: 0}
--- !u!114 &114399327823113674
MonoBehaviour:
  m_ObjectHideFlags: 1
  m_PrefabParentObject: {fileID: 0}
  m_PrefabInternal: {fileID: 100100000}
  m_GameObject: {fileID: 1945348941788760}
  m_Enabled: 1
  m_EditorHideFlags: 0
  m_Script: {fileID: 11500000, guid: eb71a54c42d48d1448d59519cc39f9a8, type: 3}
  m_Name: 
  m_EditorClassIdentifier: 
  bm: {fileID: 114928251214463580, guid: dd4818ce2e3f424449e72da6634d4530, type: 2}
  Node: {fileID: 1839386422706668, guid: b016b3af58c41a541b09e57ec5b85c4b, type: 2}
  selectedGameObject: {fileID: 0}
  floorMesh: {fileID: 0}
  isSectionCompleteText: {fileID: 114449382670601186, guid: c25c7db3cb5ce1c4397af6dc31684de5,
    type: 2}
  floorObjects: []
  isFloorComplete: 0
